{"timeYear":"",
"red":[0.4546581,0.23406732,0.138954,0.095415704,0.076426506],
"green":[0.24396846,0.24952884,0.19138117,0.16126399,0.14827836],
"blue":[0.7323095,0.18708526,0.052971642,0.02081115,0.006781925]}